LE BACKGROUND :https://beeimg.com/images/v45591189262.png
Coordonnées : Offsetx :-953 offsety : 485 offsetz : 11000

Lien2: https://beeimg.com/images/u84537936652.png
Coordonnées : Offsetx :-953 offsety : 485 offsetz : 11973

Lien3: https://beeimg.com/images/w60761882661.png
Offsetx :-953 offsety : 485 offsetz : 11977

 

Liens 4, 5 et 6 :

 https://beeimg.com/images/l64462253602.png
https://beeimg.com/images/u21589603822.png
https://beeimg.com/images/v29103285521.png
Coordonnées :Offsetx:-789 offsety : 497 offsetz : 99999

Lien 7:https://beeimg.com/images/o21391824272.png
Coordonnées : Offsetx :-789 offsety : 497 offsetz : 11991

Lien8: https://beeimg.com/images/x99686126892.png
Coordonnées : Offsetx :-789 offsety : 497 offsetz : 12004

Lien9: https://beeimg.com/images/k64427367382.png
Coordonnées : Offsetx :-789 offsety : 497 offsetz : 12006

Lien10: https://beeimg.com/images/w35164807631.png
Coordonnées : Offsetx :-789 offsety : 497 offsetz : 12009

Lien11: https://beeimg.com/images/n23495298242.png
Coordonnées : Offsetx :-789 offsety : 497 offsetz : 11997

Lien12: https://beeimg.com/images/b38786786652.png
Coordonnées : Offsetx :-789 offsety : 497 offsetz : 999999

Floor Étage : x
Xxxxxxxxx0000000xxxxxxxxxxxxxxxxxxxxxxxxxxx
Xxxxxxxxx00000000xxxxxxxxxxxxxxxxxxxxxxxxxx
Xxxxxxxxx000000000xxxxxxxxxxxxxxxxxxxxxxxxx
Xxxxxxxxx000000000xxxxxxxxxxxxxxxxxxxxxxxxx
Xxx0xxxxx0000000000xxxxxxxxxxxxxxxxxxxxxxxx
Xxxxx00000000000000000xxxxxxxxxxxxxxxxxxxxx
Xxxxx00000000000000000xxxxxxxxxxxxxxxxxxxxx
X000000000000000000000xxxxxxxxxxxxxx000xxxx
X000000000000000000000xxxxxxxxxxxxxx000xxxx
X000000000000000000000xxxxxxxxxxxxxx000xxxx
X000000000000000000000xxxxxxxxxxxxxx0000000
X000000000000000000000xxxxxxxxxxxxx00000000
Xxx0000000000000000000xxxxxxxxxxxx000000000
Xxxx000000000000000000xx00000x0000000000000
Xxxxx00000000000000000xx0000000000000000000
Xxxxx00000000000000000xx0000000000000000000
Xxxxx00000000000000000xx0000000000000000000
Xxxxx00000000000000000xx0000000000000000000
Xxxxx0000xxxxxxxxxxxxxxx0000000000000000000
Xxxxxx000xxxxxxxxxxxxxxx0000000000000000000
Xxxxxx0000xxxxxxxx0000000000000000000000000
Xxxxxxx000xxxxxxxxx000000000000000000000000
Xxxxxxx0000xx00000xx00000000000000000000000
Xxxxxxxx000xx00000xxx0000000000000000000000
Xxxxxxxx0000x00000xxxx000000000000000000000
Xxxxxxxxx000x00000xx0x0000000x0000000000000
Xxxxxxxxx000x00000xxxx00000000000000000000x
Xxxxxxxxx000000000xxxx0000000000000000000xx
Xxxxxxxxx000000000xxxx000000000000000000xxx
Xxxxxxxxx000000000xxxx00000000000000000xxxx
Xxxxxxxxx000000000xxxx0000000000000000xxxxx
Xxxxxxxxx000000000xxxx000000000000000xxxxxx
Xxxxxxxxx000000000xxxx000000000000000xxxxxx
Xxxxxxxxx000000000xxxx000000000000000xxxxxx
Xxxxxxxxx00000xxxxxxxx000000000000000xxxxxx
Xxxxxxxxx0000000xxxxxx000000000000000xxxxxx
Xxxxxxxxx000000000xxxx000000000000000xxxxxx
Xxxxxxxxxxxxxxx00000xx000000000000000xxxxxx
Xxxxxxxxxxxxxxxx0000000000000xxxxxxxxxxxxxx
Xxxxxxxxxxxxxxxxxxx000000000xxxxxxxxxxxxxxx
Xxxxxxxxxxxxxxxxxxxxxx00000xxxxxxxxxxxxxxxx